{
    "name": "Course",
    "alias": "course",
    "description": "",
    "keywords": [],
    "active": 1,
    "order": 0,
    "providers": [
        "Modules\\Course\\Providers\\CourseServiceProvider",
        "Modules\\Course\\Providers\\Helpers\\Category\\CategoryHelperServiceProvider"
    ],
    "aliases": {},
    "files": [
        "start.php"
    ],
    "requires": []
}
