<?xml version="1.0" encoding="iso-8859-1"?>
<!-- Generator: Adobe Illustrator 19.0.0, SVG Export Plug-In . SVG Version: 6.00 Build 0)  -->
<svg xmlns="http://www.w3.org/2000/svg" xmlns:xlink="http://www.w3.org/1999/xlink" version="1.1" id="Capa_1" x="0px" y="0px" viewBox="0 0 511.996 511.996" style="enable-background:new 0 0 511.996 511.996;" xml:space="preserve" width="512px" height="512px">
<g>
	<g>
		<path d="M131.981,279.998h-48c-2.21,0-4,1.789-4,4c0,2.21,1.789,4,4,4h48c2.211,0,4-1.79,4-4    C135.981,281.787,134.192,279.998,131.981,279.998z" fill="#03a9f4"/>
	</g>
</g>
<g>
	<g>
		<path d="M139.981,223.998h-64c-2.211,0-4,1.789-4,4c0,2.21,1.789,4,4,4h64c2.211,0,4-1.789,4-4    C143.981,225.788,142.191,223.998,139.981,223.998z" fill="#03a9f4"/>
	</g>
</g>
<g>
	<g>
		<path d="M75.982,223.998c-2.211,0-4,1.789-4,4v56c0,2.21,1.789,4,4,4c2.21,0,3.999-1.79,4-4v-56    C79.982,225.788,78.192,223.998,75.982,223.998z" fill="#03a9f4"/>
	</g>
</g>
<g>
	<g>
		<path d="M139.981,223.998c-2.21,0-4,1.789-4,4v56c0,2.21,1.789,4,4,4s4-1.79,4-4v-56    C143.981,225.788,142.191,223.998,139.981,223.998z" fill="#03a9f4"/>
	</g>
</g>
<g>
	<g>
		<path d="M139.981,239.998h-16c-2.211,0-4,1.789-4,4s1.789,4,4,4h16c2.211,0,4-1.789,4-4S142.191,239.998,139.981,239.998z" fill="#03a9f4"/>
	</g>
</g>
<g>
	<g>
		<path d="M91.981,239.998h-16c-2.211,0-4,1.789-4,4s1.789,4,4,4h16c2.212,0,4-1.789,4-4S94.192,239.998,91.981,239.998z" fill="#03a9f4"/>
	</g>
</g>
<g>
	<g>
		<path d="M139.981,263.998h-16c-2.211,0-4,1.789-4,4s1.789,4,4,4h16c2.211,0,4-1.789,4-4S142.191,263.998,139.981,263.998z" fill="#03a9f4"/>
	</g>
</g>
<g>
	<g>
		<path d="M91.981,263.998h-16c-2.211,0-4,1.789-4,4s1.789,4,4,4h16c2.212,0,4-1.789,4-4S94.192,263.998,91.981,263.998z" fill="#03a9f4"/>
	</g>
</g>
<g>
	<g>
		<path d="M179.981,95.999c-2.21,0-4,1.79-4,4c0,61.726-38.688,108.971-39.078,109.44c-1.407,1.7-1.181,4.219,0.523,5.633    c0.743,0.621,1.649,0.926,2.555,0.926c1.149,0,2.281-0.492,3.07-1.437c1.672-2.008,40.93-49.859,40.93-114.562    C183.981,97.789,182.192,95.999,179.981,95.999z" fill="#03a9f4"/>
	</g>
</g>
<g>
	<g>
		<path d="M79.06,209.438c-0.391-0.468-39.078-47.713-39.078-109.44c0-2.21-1.789-4-4-4s-4,1.79-4,4    c0,64.703,39.258,112.555,40.93,114.562c0.789,0.95,1.921,1.438,3.07,1.438c0.906,0,1.812-0.305,2.555-0.927    C80.24,213.657,80.467,211.138,79.06,209.438z" fill="#03a9f4"/>
	</g>
</g>
<g>
	<g>
		<path d="M107.982,47.999c-66.125,0-76,32.578-76,52c0,2.21,1.789,4,4,4s4-1.789,4-4c0-28.785,23.515-44,68-44    c55.78,0,67.999,31.762,67.999,44c0,2.21,1.79,4,4,4c2.211,0,4-1.789,4.001-4C183.982,85.534,170.325,47.999,107.982,47.999z" fill="#03a9f4"/>
	</g>
</g>
<g>
	<g>
		<path d="M151.168,72.281C139.207,66.785,124.684,64,107.981,64c-20.625,0-37.383,3.23-49.82,9.605    c-1.969,1.008-2.75,3.418-1.742,5.383c0.711,1.383,2.109,2.175,3.562,2.175c0.618,0,1.243-0.141,1.82-0.44    C73.106,74.933,88.637,72,107.981,72c15.538,0,28.945,2.538,39.843,7.546c1.992,0.922,4.383,0.047,5.305-1.961    C154.05,75.577,153.176,73.203,151.168,72.281z" fill="#03a9f4"/>
	</g>
</g>
<g>
	<g>
		<path d="M107.982,151.998c-2.211,0-4,1.789-4,4v56c0,2.211,1.789,4,4,4c2.21,0,3.999-1.789,4-4v-56    C111.982,153.787,110.192,151.998,107.982,151.998z" fill="#03a9f4"/>
	</g>
</g>
<g>
	<g>
		<path d="M132.668,168.056c-2.157-0.37-4.25,1.067-4.625,3.25l-7,40c-0.382,2.18,1.07,4.25,3.25,4.633    c0.235,0.039,0.462,0.059,0.696,0.059c1.907,0,3.594-1.367,3.929-3.309l7-40C136.3,170.509,134.847,168.439,132.668,168.056z" fill="#03a9f4"/>
	</g>
</g>
<g>
	<g>
		<path d="M95.904,211.214l-8-40c-0.437-2.172-2.633-3.574-4.703-3.137c-2.172,0.434-3.578,2.539-3.141,4.707l8,40    c0.383,1.902,2.047,3.214,3.914,3.214c0.265,0,0.531-0.023,0.789-0.077C94.935,215.487,96.341,213.382,95.904,211.214z" fill="#03a9f4"/>
	</g>
</g>
<g>
	<g>
		<path d="M75.982,279.998c-2.211,0-4,1.789-4,4v159.998c0,2.211,1.789,4.001,4,4.001c2.21,0,3.999-1.79,4-4.001V283.998    C79.982,281.787,78.192,279.998,75.982,279.998z" fill="#03a9f4"/>
	</g>
</g>
<g>
	<g>
		<path d="M139.981,279.998c-2.21,0-4,1.789-4,4v159.998c0,2.211,1.789,4.001,4,4.001s4-1.79,4-4.001V283.998    C143.981,281.787,142.191,279.998,139.981,279.998z" fill="#03a9f4"/>
	</g>
</g>
<g>
	<g>
		<path d="M139.981,439.996c-2.21,0-4,1.79-4,4c0,15.438-12.562,28-27.999,28c-15.438,0-28-12.562-28-28c0-2.21-1.79-4-4-4    c-2.211,0-4,1.79-4,4c0,19.853,16.148,36,36,36c19.85,0,35.999-16.147,35.999-36C143.981,441.786,142.191,439.996,139.981,439.996    z" fill="#03a9f4"/>
	</g>
</g>
<g>
	<g>
		<path d="M91.966,295.998c-2.211,0-4,1.79-4,4v143.998c0,2.211,1.789,4.001,4,4.001s4-1.79,4-4.001V299.998    C95.966,297.788,94.177,295.998,91.966,295.998z" fill="#03a9f4"/>
	</g>
</g>
<g>
	<g>
		<path d="M107.966,455.997c-6.617,0-12-5.383-12-12.001c0-2.21-1.789-4-4-4s-4,1.79-4,4c0,11.032,8.968,20.001,20,20.001    c2.211,0,4-1.79,4-4.001S110.176,455.997,107.966,455.997z" fill="#03a9f4"/>
	</g>
</g>
<g>
	<g>
		<path d="M352.016,255.998c-70.578,0-127.996,57.422-127.996,127.999c0,70.578,57.418,127.999,127.996,127.999    c70.576,0,127.998-57.421,127.998-127.999C480.014,313.42,422.592,255.998,352.016,255.998z M352.016,503.996    c-66.172,0-119.996-53.827-119.996-119.999c0-66.171,53.824-119.999,119.996-119.999c66.17,0,119.998,53.828,119.998,119.999    C472.014,450.169,418.186,503.996,352.016,503.996z" fill="#03a9f4"/>
	</g>
</g>
<g>
	<g>
		<path d="M352.016,271.998c-61.75,0-111.996,50.242-111.996,111.999s50.246,111.999,111.996,111.999    c61.765,0,111.998-50.242,111.998-111.999S413.782,271.998,352.016,271.998z M352.016,487.997    c-57.346,0-103.996-46.656-103.996-104s46.65-103.999,103.996-103.999c57.341,0,103.998,46.655,103.998,103.999    S409.358,487.997,352.016,487.997z" fill="#03a9f4"/>
	</g>
</g>
<g>
	<g>
		<path d="M352.016,0C281.438,0,224.02,57.421,224.02,127.999c0,52.804,33.148,100.897,82.494,119.667    c2.049,0.797,4.377-0.246,5.158-2.316c0.782-2.063-0.25-4.375-2.312-5.16c-46.262-17.598-77.34-62.684-77.34-112.191    C232.02,61.831,285.844,8,352.016,8c66.17,0,119.998,53.831,119.998,119.999c0,49.565-31.123,94.671-77.467,112.233    c-2.064,0.785-3.111,3.094-2.33,5.161c0.611,1.598,2.127,2.582,3.752,2.582c0.467,0,0.951-0.082,1.404-0.258    c49.44-18.739,82.641-66.847,82.641-119.718C480.014,57.421,422.592,0,352.016,0z" fill="#03a9f4"/>
	</g>
</g>
<g>
	<g>
		<path d="M307.984,239.944c-2.219,0-4,1.789-4,4v8.359c0,2.211,1.781,4,4,4c2.203,0,4-1.789,4-4v-8.359    C311.984,241.733,310.187,239.944,307.984,239.944z" fill="#03a9f4"/>
	</g>
</g>
<g>
	<g>
		<path d="M395.984,239.998c-2.219,0-4.002,1.789-4.002,4v8c0,2.211,1.783,4,4.002,4c2.202,0,4-1.789,4-4v-8    C399.984,241.787,398.185,239.998,395.984,239.998z" fill="#03a9f4"/>
	</g>
</g>
<g>
	<g>
		<path d="M431.217,46.758c-21.156-21.16-49.279-32.812-79.201-32.812c-29.907,0-58.032,11.652-79.188,32.812    c-21.161,21.152-32.809,49.276-32.809,79.19c0,29.918,11.649,58.042,32.809,79.199c21.157,21.153,49.282,32.801,79.188,32.801    c29.921,0,58.044-11.649,79.201-32.801c21.158-21.157,32.797-49.281,32.797-79.199C464.014,96.035,452.375,67.91,431.217,46.758z     M425.561,199.491c-19.639,19.641-45.764,30.457-73.545,30.457s-53.89-10.816-73.531-30.457    c-19.644-19.645-30.464-45.762-30.464-73.543c0-27.777,10.819-53.894,30.464-73.534c19.64-19.649,45.75-30.469,73.531-30.469    s53.89,10.82,73.545,30.469c19.641,19.64,30.453,45.758,30.453,73.534C456.014,153.729,445.202,179.846,425.561,199.491z" fill="#03a9f4"/>
	</g>
</g>
<g>
	<g>
		<path d="M347.984,295.998c-46.33,0-84.004,37.686-84.004,83.998c0,2.211,1.785,4.001,4.004,4.001c2.203,0,4-1.79,4-4.001    c0-41.905,34.094-75.999,76-75.999c2.203,0,4-1.789,4-3.999C351.984,297.788,350.187,295.998,347.984,295.998z" fill="#03a9f4"/>
	</g>
</g>
<g>
	<g>
		<path d="M436.06,383.997c-2.217,0-4,1.79-4,4.001c0,41.905-34.094,75.999-75.998,75.999c-2.219,0-4,1.789-4,4    c0,2.21,1.781,3.999,4,3.999c46.313,0,83.998-37.686,83.998-83.998C440.06,385.787,438.265,383.997,436.06,383.997z" fill="#03a9f4"/>
	</g>
</g>
<g>
	<g>
		<path d="M407.138,70.835c-1.562-1.562-4.092-1.562-5.654,0l-101.828,101.82c-1.562,1.563-1.562,4.094,0,5.656    c0.781,0.781,1.812,1.172,2.828,1.172c1.032,0,2.047-0.391,2.828-1.172l101.826-101.82C408.7,74.929,408.7,72.398,407.138,70.835z    " fill="#03a9f4"/>
	</g>
</g>
<g>
	<g>
		<path d="M404.281,124.546c-1.564-1.562-4.096-1.562-5.658,0l-45.248,45.25c-1.562,1.562-1.562,4.094,0,5.656    c0.779,0.781,1.795,1.172,2.828,1.172c1.016,0,2.047-0.391,2.826-1.172l45.252-45.249    C405.843,128.64,405.843,126.108,404.281,124.546z" fill="#03a9f4"/>
	</g>
</g>
<g>
	<g>
		<path d="M353.375,73.632c-1.562-1.562-4.094-1.562-5.658,0l-45.248,45.25c-1.562,1.562-1.562,4.094,0,5.656    c0.781,0.781,1.797,1.171,2.828,1.171c1.015,0,2.047-0.39,2.828-1.171l45.25-45.25C354.937,77.726,354.937,75.194,353.375,73.632z    " fill="#03a9f4"/>
	</g>
</g>
<g>
</g>
<g>
</g>
<g>
</g>
<g>
</g>
<g>
</g>
<g>
</g>
<g>
</g>
<g>
</g>
<g>
</g>
<g>
</g>
<g>
</g>
<g>
</g>
<g>
</g>
<g>
</g>
<g>
</g>
</svg>
